{
	"type": "Buffer",
	"data": [],
	"01/2020": {
		"Maja": 0,
		"Boris Š.": 0,
		"Mario": 0,
		"Zvonimir B.": 0,
		"Marko G.": 0,
		"Dajana": 0,
		"Marjan": 0,
		"Marija": 0,
		"Antonio G.": 0,
		"Alan": 0,
		"Snježana": 0,
		"Zvonimir P.": 0,
		"Iva B.": 0,
		"Vedran": 0,
		"Marko": 0,
		"Tomislav": 0
	}
}