{
	"2020-01-21,Tuesday": {
		"Group A": [
			"Maja",
			"Zvonimir B.",
			"Dajana",
			"Marija",
			"Antonio G.",
			"Snježana",
			"Iva B.",
			"Vedran"
		],
		"Group B": [
			"Boris Š.",
			"Mario",
			"Marko G.",
			"Boris B.",
			"Alan",
			"Zvonimir P.",
			"Marko",
			"Tomislav"
		]
	},
	"2020-01-23,Thursday": {
		"Group A": [
			"Boris Š.",
			"Mario",
			"Marko G.",
			"Marjan",
			"Alan",
			"Zvonimir P.",
			"Marko",
			"Tomislav"
		],
		"Group B": [
			"Maja",
			"Zvonimir B.",
			"Dajana",
			"Marija",
			"Antonio G.",
			"Snježana",
			"Iva B.",
			"Vedran"
		]
	}
}
